{
  "project_info": {
    "project_number": "241663038141",
    "firebase_url": "https://isuaepsdev.firebaseio.com",
    "project_id": "isuaepsdev",
    "storage_bucket": "isuaepsdev.appspot.com"
  },
  "client": [
    {
      "client_info": {
        "mobilesdk_app_id": "1:241663038141:android:5112445a39929bef",
        "android_client_info": {
          "package_name": "com.cyrusbion.aeps"
        }
      },
      "oauth_client": [
        {
          "client_id": "241663038141-nmi0406gc6vtmfupm4mbbcls28k5p5jr.apps.googleusercontent.com",
          "client_type": 3
        }
      ],
      "api_key": [
        {
          "current_key": "AIzaSyAURZ4sUCb_Hqk45ZBFRwVqC_sSjdDGtJo"
        }
      ],
      "services": {
        "analytics_service": {
          "status": 1
        },
        "appinvite_service": {
          "status": 1,
          "other_platform_oauth_client": []
        },
        "ads_service": {
          "status": 2
        }
      }
    },
    {
      "client_info": {
        "mobilesdk_app_id": "1:241663038141:android:b00ed152e679aec7",
        "android_client_info": {
          "package_name": "com.iserveu.aapkaatm"
        }
      },
      "oauth_client": [
        {
          "client_id": "241663038141-nmi0406gc6vtmfupm4mbbcls28k5p5jr.apps.googleusercontent.com",
          "client_type": 3
        }
      ],
      "api_key": [
        {
          "current_key": "AIzaSyAURZ4sUCb_Hqk45ZBFRwVqC_sSjdDGtJo"
        }
      ],
      "services": {
        "analytics_service": {
          "status": 1
        },
        "appinvite_service": {
          "status": 1,
          "other_platform_oauth_client": []
        },
        "ads_service": {
          "status": 2
        }
      }
    },
    {
      "client_info": {
        "mobilesdk_app_id": "1:241663038141:android:f007f4ae59301a37",
        "android_client_info": {
          "package_name": "com.iserveu.aeps"
        }
      },
      "oauth_client": [
        {
          "client_id": "241663038141-nmi0406gc6vtmfupm4mbbcls28k5p5jr.apps.googleusercontent.com",
          "client_type": 3
        }
      ],
      "api_key": [
        {
          "current_key": "AIzaSyAURZ4sUCb_Hqk45ZBFRwVqC_sSjdDGtJo"
        }
      ],
      "services": {
        "analytics_service": {
          "status": 1
        },
        "appinvite_service": {
          "status": 1,
          "other_platform_oauth_client": []
        },
        "ads_service": {
          "status": 2
        }
      }
    },
    {
      "client_info": {
        "mobilesdk_app_id": "1:241663038141:android:543dfa043dc2a310",
        "android_client_info": {
          "package_name": "com.iserveu.aepsStagging"
        }
      },
      "oauth_client": [
        {
          "client_id": "241663038141-nmi0406gc6vtmfupm4mbbcls28k5p5jr.apps.googleusercontent.com",
          "client_type": 3
        }
      ],
      "api_key": [
        {
          "current_key": "AIzaSyAURZ4sUCb_Hqk45ZBFRwVqC_sSjdDGtJo"
        }
      ],
      "services": {
        "analytics_service": {
          "status": 1
        },
        "appinvite_service": {
          "status": 1,
          "other_platform_oauth_client": []
        },
        "ads_service": {
          "status": 2
        }
      }
    },
    {
      "client_info": {
        "mobilesdk_app_id": "1:241663038141:android:7c7e213585ced9f5",
        "android_client_info": {
          "package_name": "com.iserveu.bisani"
        }
      },
      "oauth_client": [
        {
          "client_id": "241663038141-nmi0406gc6vtmfupm4mbbcls28k5p5jr.apps.googleusercontent.com",
          "client_type": 3
        }
      ],
      "api_key": [
        {
          "current_key": "AIzaSyAURZ4sUCb_Hqk45ZBFRwVqC_sSjdDGtJo"
        }
      ],
      "services": {
        "analytics_service": {
          "status": 1
        },
        "appinvite_service": {
          "status": 1,
          "other_platform_oauth_client": []
        },
        "ads_service": {
          "status": 2
        }
      }
    },
    {
      "client_info": {
        "mobilesdk_app_id": "1:241663038141:android:08ed426197d3c6d9",
        "android_client_info": {
          "package_name": "com.iserveu.bringpay"
        }
      },
      "oauth_client": [
        {
          "client_id": "241663038141-nmi0406gc6vtmfupm4mbbcls28k5p5jr.apps.googleusercontent.com",
          "client_type": 3
        }
      ],
      "api_key": [
        {
          "current_key": "AIzaSyAURZ4sUCb_Hqk45ZBFRwVqC_sSjdDGtJo"
        }
      ],
      "services": {
        "analytics_service": {
          "status": 1
        },
        "appinvite_service": {
          "status": 1,
          "other_platform_oauth_client": []
        },
        "ads_service": {
          "status": 2
        }
      }
    },
    {
      "client_info": {
        "mobilesdk_app_id": "1:241663038141:android:ff786bda94e20372",
        "android_client_info": {
          "package_name": "com.iserveu.cashand"
        }
      },
      "oauth_client": [
        {
          "client_id": "241663038141-nmi0406gc6vtmfupm4mbbcls28k5p5jr.apps.googleusercontent.com",
          "client_type": 3
        }
      ],
      "api_key": [
        {
          "current_key": "AIzaSyAURZ4sUCb_Hqk45ZBFRwVqC_sSjdDGtJo"
        }
      ],
      "services": {
        "analytics_service": {
          "status": 1
        },
        "appinvite_service": {
          "status": 1,
          "other_platform_oauth_client": []
        },
        "ads_service": {
          "status": 2
        }
      }
    },
    {
      "client_info": {
        "mobilesdk_app_id": "1:241663038141:android:1ebab3b8378ca860",
        "android_client_info": {
          "package_name": "com.iserveu.digipayfast"
        }
      },
      "oauth_client": [
        {
          "client_id": "241663038141-nmi0406gc6vtmfupm4mbbcls28k5p5jr.apps.googleusercontent.com",
          "client_type": 3
        }
      ],
      "api_key": [
        {
          "current_key": "AIzaSyAURZ4sUCb_Hqk45ZBFRwVqC_sSjdDGtJo"
        }
      ],
      "services": {
        "analytics_service": {
          "status": 1
        },
        "appinvite_service": {
          "status": 1,
          "other_platform_oauth_client": []
        },
        "ads_service": {
          "status": 2
        }
      }
    },
    {
      "client_info": {
        "mobilesdk_app_id": "1:241663038141:android:b746624cd2081be7",
        "android_client_info": {
          "package_name": "com.iserveu.digitalindiabanking"
        }
      },
      "oauth_client": [
        {
          "client_id": "241663038141-nmi0406gc6vtmfupm4mbbcls28k5p5jr.apps.googleusercontent.com",
          "client_type": 3
        }
      ],
      "api_key": [
        {
          "current_key": "AIzaSyAURZ4sUCb_Hqk45ZBFRwVqC_sSjdDGtJo"
        }
      ],
      "services": {
        "analytics_service": {
          "status": 1
        },
        "appinvite_service": {
          "status": 1,
          "other_platform_oauth_client": []
        },
        "ads_service": {
          "status": 2
        }
      }
    },
    {
      "client_info": {
        "mobilesdk_app_id": "1:241663038141:android:92285517dbe8da4b",
        "android_client_info": {
          "package_name": "com.iserveu.dpay"
        }
      },
      "oauth_client": [
        {
          "client_id": "241663038141-nmi0406gc6vtmfupm4mbbcls28k5p5jr.apps.googleusercontent.com",
          "client_type": 3
        }
      ],
      "api_key": [
        {
          "current_key": "AIzaSyAURZ4sUCb_Hqk45ZBFRwVqC_sSjdDGtJo"
        }
      ],
      "services": {
        "analytics_service": {
          "status": 1
        },
        "appinvite_service": {
          "status": 1,
          "other_platform_oauth_client": []
        },
        "ads_service": {
          "status": 2
        }
      }
    },
    {
      "client_info": {
        "mobilesdk_app_id": "1:241663038141:android:019147cdb38b5046",
        "android_client_info": {
          "package_name": "com.iserveu.dseva"
        }
      },
      "oauth_client": [
        {
          "client_id": "241663038141-nmi0406gc6vtmfupm4mbbcls28k5p5jr.apps.googleusercontent.com",
          "client_type": 3
        }
      ],
      "api_key": [
        {
          "current_key": "AIzaSyAURZ4sUCb_Hqk45ZBFRwVqC_sSjdDGtJo"
        }
      ],
      "services": {
        "analytics_service": {
          "status": 1
        },
        "appinvite_service": {
          "status": 1,
          "other_platform_oauth_client": []
        },
        "ads_service": {
          "status": 2
        }
      }
    },
    {
      "client_info": {
        "mobilesdk_app_id": "1:241663038141:android:e0bf89a7e02ef99a",
        "android_client_info": {
          "package_name": "com.iserveu.emitrahub"
        }
      },
      "oauth_client": [
        {
          "client_id": "241663038141-nmi0406gc6vtmfupm4mbbcls28k5p5jr.apps.googleusercontent.com",
          "client_type": 3
        }
      ],
      "api_key": [
        {
          "current_key": "AIzaSyAURZ4sUCb_Hqk45ZBFRwVqC_sSjdDGtJo"
        }
      ],
      "services": {
        "analytics_service": {
          "status": 1
        },
        "appinvite_service": {
          "status": 1,
          "other_platform_oauth_client": []
        },
        "ads_service": {
          "status": 2
        }
      }
    },
    {
      "client_info": {
        "mobilesdk_app_id": "1:241663038141:android:c72a1842322661bd",
        "android_client_info": {
          "package_name": "com.iserveu.esavapay"
        }
      },
      "oauth_client": [
        {
          "client_id": "241663038141-nmi0406gc6vtmfupm4mbbcls28k5p5jr.apps.googleusercontent.com",
          "client_type": 3
        }
      ],
      "api_key": [
        {
          "current_key": "AIzaSyAURZ4sUCb_Hqk45ZBFRwVqC_sSjdDGtJo"
        }
      ],
      "services": {
        "analytics_service": {
          "status": 1
        },
        "appinvite_service": {
          "status": 1,
          "other_platform_oauth_client": []
        },
        "ads_service": {
          "status": 2
        }
      }
    },
    {
      "client_info": {
        "mobilesdk_app_id": "1:241663038141:android:d1d2ddd0a07c1e32",
        "android_client_info": {
          "package_name": "com.iserveu.fipay"
        }
      },
      "oauth_client": [
        {
          "client_id": "241663038141-nmi0406gc6vtmfupm4mbbcls28k5p5jr.apps.googleusercontent.com",
          "client_type": 3
        }
      ],
      "api_key": [
        {
          "current_key": "AIzaSyAURZ4sUCb_Hqk45ZBFRwVqC_sSjdDGtJo"
        }
      ],
      "services": {
        "analytics_service": {
          "status": 1
        },
        "appinvite_service": {
          "status": 1,
          "other_platform_oauth_client": []
        },
        "ads_service": {
          "status": 2
        }
      }
    },
    {
      "client_info": {
        "mobilesdk_app_id": "1:241663038141:android:3f2e892d3c82e8ea",
        "android_client_info": {
          "package_name": "com.iserveu.friendspay"
        }
      },
      "oauth_client": [
        {
          "client_id": "241663038141-nmi0406gc6vtmfupm4mbbcls28k5p5jr.apps.googleusercontent.com",
          "client_type": 3
        }
      ],
      "api_key": [
        {
          "current_key": "AIzaSyAURZ4sUCb_Hqk45ZBFRwVqC_sSjdDGtJo"
        }
      ],
      "services": {
        "analytics_service": {
          "status": 1
        },
        "appinvite_service": {
          "status": 1,
          "other_platform_oauth_client": []
        },
        "ads_service": {
          "status": 2
        }
      }
    },
    {
      "client_info": {
        "mobilesdk_app_id": "1:241663038141:android:dc2953278639d695",
        "android_client_info": {
          "package_name": "com.iserveu.instacash"
        }
      },
      "oauth_client": [
        {
          "client_id": "241663038141-nmi0406gc6vtmfupm4mbbcls28k5p5jr.apps.googleusercontent.com",
          "client_type": 3
        }
      ],
      "api_key": [
        {
          "current_key": "AIzaSyAURZ4sUCb_Hqk45ZBFRwVqC_sSjdDGtJo"
        }
      ],
      "services": {
        "analytics_service": {
          "status": 1
        },
        "appinvite_service": {
          "status": 1,
          "other_platform_oauth_client": []
        },
        "ads_service": {
          "status": 2
        }
      }
    },
    {
      "client_info": {
        "mobilesdk_app_id": "1:241663038141:android:d9bcf5479a1500b9",
        "android_client_info": {
          "package_name": "com.iserveu.isewa"
        }
      },
      "oauth_client": [
        {
          "client_id": "241663038141-nmi0406gc6vtmfupm4mbbcls28k5p5jr.apps.googleusercontent.com",
          "client_type": 3
        }
      ],
      "api_key": [
        {
          "current_key": "AIzaSyAURZ4sUCb_Hqk45ZBFRwVqC_sSjdDGtJo"
        }
      ],
      "services": {
        "analytics_service": {
          "status": 1
        },
        "appinvite_service": {
          "status": 1,
          "other_platform_oauth_client": []
        },
        "ads_service": {
          "status": 2
        }
      }
    },
    {
      "client_info": {
        "mobilesdk_app_id": "1:241663038141:android:8424dc9e71e913f5",
        "android_client_info": {
          "package_name": "com.iserveu.krac"
        }
      },
      "oauth_client": [
        {
          "client_id": "241663038141-nmi0406gc6vtmfupm4mbbcls28k5p5jr.apps.googleusercontent.com",
          "client_type": 3
        }
      ],
      "api_key": [
        {
          "current_key": "AIzaSyAURZ4sUCb_Hqk45ZBFRwVqC_sSjdDGtJo"
        }
      ],
      "services": {
        "analytics_service": {
          "status": 1
        },
        "appinvite_service": {
          "status": 1,
          "other_platform_oauth_client": []
        },
        "ads_service": {
          "status": 2
        }
      }
    },
    {
      "client_info": {
        "mobilesdk_app_id": "1:241663038141:android:aaf8cd7817ac3360",
        "android_client_info": {
          "package_name": "com.iserveu.mdigipay"
        }
      },
      "oauth_client": [
        {
          "client_id": "241663038141-nmi0406gc6vtmfupm4mbbcls28k5p5jr.apps.googleusercontent.com",
          "client_type": 3
        }
      ],
      "api_key": [
        {
          "current_key": "AIzaSyAURZ4sUCb_Hqk45ZBFRwVqC_sSjdDGtJo"
        }
      ],
      "services": {
        "analytics_service": {
          "status": 1
        },
        "appinvite_service": {
          "status": 1,
          "other_platform_oauth_client": []
        },
        "ads_service": {
          "status": 2
        }
      }
    },
    {
      "client_info": {
        "mobilesdk_app_id": "1:241663038141:android:1d11591c6db063be",
        "android_client_info": {
          "package_name": "com.iserveu.money"
        }
      },
      "oauth_client": [
        {
          "client_id": "241663038141-nmi0406gc6vtmfupm4mbbcls28k5p5jr.apps.googleusercontent.com",
          "client_type": 3
        }
      ],
      "api_key": [
        {
          "current_key": "AIzaSyAURZ4sUCb_Hqk45ZBFRwVqC_sSjdDGtJo"
        }
      ],
      "services": {
        "analytics_service": {
          "status": 1
        },
        "appinvite_service": {
          "status": 1,
          "other_platform_oauth_client": []
        },
        "ads_service": {
          "status": 2
        }
      }
    },
    {
      "client_info": {
        "mobilesdk_app_id": "1:241663038141:android:ba7f33514324a21a",
        "android_client_info": {
          "package_name": "com.iserveu.movecashless"
        }
      },
      "oauth_client": [
        {
          "client_id": "241663038141-nmi0406gc6vtmfupm4mbbcls28k5p5jr.apps.googleusercontent.com",
          "client_type": 3
        }
      ],
      "api_key": [
        {
          "current_key": "AIzaSyAURZ4sUCb_Hqk45ZBFRwVqC_sSjdDGtJo"
        }
      ],
      "services": {
        "analytics_service": {
          "status": 1
        },
        "appinvite_service": {
          "status": 1,
          "other_platform_oauth_client": []
        },
        "ads_service": {
          "status": 2
        }
      }
    },
    {
      "client_info": {
        "mobilesdk_app_id": "1:241663038141:android:03c6aa1c0b75889d",
        "android_client_info": {
          "package_name": "com.iserveu.nammabharat"
        }
      },
      "oauth_client": [
        {
          "client_id": "241663038141-nmi0406gc6vtmfupm4mbbcls28k5p5jr.apps.googleusercontent.com",
          "client_type": 3
        }
      ],
      "api_key": [
        {
          "current_key": "AIzaSyAURZ4sUCb_Hqk45ZBFRwVqC_sSjdDGtJo"
        }
      ],
      "services": {
        "analytics_service": {
          "status": 1
        },
        "appinvite_service": {
          "status": 1,
          "other_platform_oauth_client": []
        },
        "ads_service": {
          "status": 2
        }
      }
    },
    {
      "client_info": {
        "mobilesdk_app_id": "1:241663038141:android:5fe66dbc2df7a633",
        "android_client_info": {
          "package_name": "com.iserveu.nirmaildigitalservices"
        }
      },
      "oauth_client": [
        {
          "client_id": "241663038141-nmi0406gc6vtmfupm4mbbcls28k5p5jr.apps.googleusercontent.com",
          "client_type": 3
        }
      ],
      "api_key": [
        {
          "current_key": "AIzaSyAURZ4sUCb_Hqk45ZBFRwVqC_sSjdDGtJo"
        }
      ],
      "services": {
        "analytics_service": {
          "status": 1
        },
        "appinvite_service": {
          "status": 1,
          "other_platform_oauth_client": []
        },
        "ads_service": {
          "status": 2
        }
      }
    },
    {
      "client_info": {
        "mobilesdk_app_id": "1:241663038141:android:0e60ceb992225ce5",
        "android_client_info": {
          "package_name": "com.iserveu.nmarata"
        }
      },
      "oauth_client": [
        {
          "client_id": "241663038141-nmi0406gc6vtmfupm4mbbcls28k5p5jr.apps.googleusercontent.com",
          "client_type": 3
        }
      ],
      "api_key": [
        {
          "current_key": "AIzaSyAURZ4sUCb_Hqk45ZBFRwVqC_sSjdDGtJo"
        }
      ],
      "services": {
        "analytics_service": {
          "status": 1
        },
        "appinvite_service": {
          "status": 1,
          "other_platform_oauth_client": []
        },
        "ads_service": {
          "status": 2
        }
      }
    },
    {
      "client_info": {
        "mobilesdk_app_id": "1:241663038141:android:41b178d7be07be1c",
        "android_client_info": {
          "package_name": "com.iserveu.omfinserve"
        }
      },
      "oauth_client": [
        {
          "client_id": "241663038141-nmi0406gc6vtmfupm4mbbcls28k5p5jr.apps.googleusercontent.com",
          "client_type": 3
        }
      ],
      "api_key": [
        {
          "current_key": "AIzaSyAURZ4sUCb_Hqk45ZBFRwVqC_sSjdDGtJo"
        }
      ],
      "services": {
        "analytics_service": {
          "status": 1
        },
        "appinvite_service": {
          "status": 1,
          "other_platform_oauth_client": []
        },
        "ads_service": {
          "status": 2
        }
      }
    },
    {
      "client_info": {
        "mobilesdk_app_id": "1:241663038141:android:4ca9dc79beca3ec9",
        "android_client_info": {
          "package_name": "com.iserveu.oneindiapayments"
        }
      },
      "oauth_client": [
        {
          "client_id": "241663038141-nmi0406gc6vtmfupm4mbbcls28k5p5jr.apps.googleusercontent.com",
          "client_type": 3
        }
      ],
      "api_key": [
        {
          "current_key": "AIzaSyAURZ4sUCb_Hqk45ZBFRwVqC_sSjdDGtJo"
        }
      ],
      "services": {
        "analytics_service": {
          "status": 1
        },
        "appinvite_service": {
          "status": 1,
          "other_platform_oauth_client": []
        },
        "ads_service": {
          "status": 2
        }
      }
    },
    {
      "client_info": {
        "mobilesdk_app_id": "1:241663038141:android:070f6efd2adf8226",
        "android_client_info": {
          "package_name": "com.iserveu.payacross"
        }
      },
      "oauth_client": [
        {
          "client_id": "241663038141-nmi0406gc6vtmfupm4mbbcls28k5p5jr.apps.googleusercontent.com",
          "client_type": 3
        }
      ],
      "api_key": [
        {
          "current_key": "AIzaSyAURZ4sUCb_Hqk45ZBFRwVqC_sSjdDGtJo"
        }
      ],
      "services": {
        "analytics_service": {
          "status": 1
        },
        "appinvite_service": {
          "status": 1,
          "other_platform_oauth_client": []
        },
        "ads_service": {
          "status": 2
        }
      }
    },
    {
      "client_info": {
        "mobilesdk_app_id": "1:241663038141:android:e8a2ca1990f3bcc3",
        "android_client_info": {
          "package_name": "com.iserveu.payatm"
        }
      },
      "oauth_client": [
        {
          "client_id": "241663038141-nmi0406gc6vtmfupm4mbbcls28k5p5jr.apps.googleusercontent.com",
          "client_type": 3
        }
      ],
      "api_key": [
        {
          "current_key": "AIzaSyAURZ4sUCb_Hqk45ZBFRwVqC_sSjdDGtJo"
        }
      ],
      "services": {
        "analytics_service": {
          "status": 1
        },
        "appinvite_service": {
          "status": 1,
          "other_platform_oauth_client": []
        },
        "ads_service": {
          "status": 2
        }
      }
    },
    {
      "client_info": {
        "mobilesdk_app_id": "1:241663038141:android:5f045ad2ddcf72f6",
        "android_client_info": {
          "package_name": "com.iserveu.paymnc"
        }
      },
      "oauth_client": [
        {
          "client_id": "241663038141-nmi0406gc6vtmfupm4mbbcls28k5p5jr.apps.googleusercontent.com",
          "client_type": 3
        }
      ],
      "api_key": [
        {
          "current_key": "AIzaSyAURZ4sUCb_Hqk45ZBFRwVqC_sSjdDGtJo"
        }
      ],
      "services": {
        "analytics_service": {
          "status": 1
        },
        "appinvite_service": {
          "status": 1,
          "other_platform_oauth_client": []
        },
        "ads_service": {
          "status": 2
        }
      }
    },
    {
      "client_info": {
        "mobilesdk_app_id": "1:241663038141:android:9dd47f8dfb929e3a",
        "android_client_info": {
          "package_name": "com.iserveu.payup"
        }
      },
      "oauth_client": [
        {
          "client_id": "241663038141-nmi0406gc6vtmfupm4mbbcls28k5p5jr.apps.googleusercontent.com",
          "client_type": 3
        }
      ],
      "api_key": [
        {
          "current_key": "AIzaSyAURZ4sUCb_Hqk45ZBFRwVqC_sSjdDGtJo"
        }
      ],
      "services": {
        "analytics_service": {
          "status": 1
        },
        "appinvite_service": {
          "status": 1,
          "other_platform_oauth_client": []
        },
        "ads_service": {
          "status": 2
        }
      }
    },
    {
      "client_info": {
        "mobilesdk_app_id": "1:241663038141:android:b4a2b7df824fe0c2",
        "android_client_info": {
          "package_name": "com.iserveu.pmoney"
        }
      },
      "oauth_client": [
        {
          "client_id": "241663038141-nmi0406gc6vtmfupm4mbbcls28k5p5jr.apps.googleusercontent.com",
          "client_type": 3
        }
      ],
      "api_key": [
        {
          "current_key": "AIzaSyAURZ4sUCb_Hqk45ZBFRwVqC_sSjdDGtJo"
        }
      ],
      "services": {
        "analytics_service": {
          "status": 1
        },
        "appinvite_service": {
          "status": 1,
          "other_platform_oauth_client": []
        },
        "ads_service": {
          "status": 2
        }
      }
    },
    {
      "client_info": {
        "mobilesdk_app_id": "1:241663038141:android:771954a7e8123964",
        "android_client_info": {
          "package_name": "com.iserveu.pragati"
        }
      },
      "oauth_client": [
        {
          "client_id": "241663038141-nmi0406gc6vtmfupm4mbbcls28k5p5jr.apps.googleusercontent.com",
          "client_type": 3
        }
      ],
      "api_key": [
        {
          "current_key": "AIzaSyAURZ4sUCb_Hqk45ZBFRwVqC_sSjdDGtJo"
        }
      ],
      "services": {
        "analytics_service": {
          "status": 1
        },
        "appinvite_service": {
          "status": 1,
          "other_platform_oauth_client": []
        },
        "ads_service": {
          "status": 2
        }
      }
    },
    {
      "client_info": {
        "mobilesdk_app_id": "1:241663038141:android:d3a98738254cc814",
        "android_client_info": {
          "package_name": "com.iserveu.realpay"
        }
      },
      "oauth_client": [
        {
          "client_id": "241663038141-nmi0406gc6vtmfupm4mbbcls28k5p5jr.apps.googleusercontent.com",
          "client_type": 3
        }
      ],
      "api_key": [
        {
          "current_key": "AIzaSyAURZ4sUCb_Hqk45ZBFRwVqC_sSjdDGtJo"
        }
      ],
      "services": {
        "analytics_service": {
          "status": 1
        },
        "appinvite_service": {
          "status": 1,
          "other_platform_oauth_client": []
        },
        "ads_service": {
          "status": 2
        }
      }
    },
    {
      "client_info": {
        "mobilesdk_app_id": "1:241663038141:android:d28991273450b7a0",
        "android_client_info": {
          "package_name": "com.iserveu.rekha"
        }
      },
      "oauth_client": [
        {
          "client_id": "241663038141-nmi0406gc6vtmfupm4mbbcls28k5p5jr.apps.googleusercontent.com",
          "client_type": 3
        }
      ],
      "api_key": [
        {
          "current_key": "AIzaSyAURZ4sUCb_Hqk45ZBFRwVqC_sSjdDGtJo"
        }
      ],
      "services": {
        "analytics_service": {
          "status": 1
        },
        "appinvite_service": {
          "status": 1,
          "other_platform_oauth_client": []
        },
        "ads_service": {
          "status": 2
        }
      }
    },
    {
      "client_info": {
        "mobilesdk_app_id": "1:241663038141:android:92f3b77b7582d278",
        "android_client_info": {
          "package_name": "com.iserveu.sakala"
        }
      },
      "oauth_client": [
        {
          "client_id": "241663038141-nmi0406gc6vtmfupm4mbbcls28k5p5jr.apps.googleusercontent.com",
          "client_type": 3
        }
      ],
      "api_key": [
        {
          "current_key": "AIzaSyAURZ4sUCb_Hqk45ZBFRwVqC_sSjdDGtJo"
        }
      ],
      "services": {
        "analytics_service": {
          "status": 1
        },
        "appinvite_service": {
          "status": 1,
          "other_platform_oauth_client": []
        },
        "ads_service": {
          "status": 2
        }
      }
    },
    {
      "client_info": {
        "mobilesdk_app_id": "1:241663038141:android:28dad08885ed73c1",
        "android_client_info": {
          "package_name": "com.iserveu.sanpay"
        }
      },
      "oauth_client": [
        {
          "client_id": "241663038141-nmi0406gc6vtmfupm4mbbcls28k5p5jr.apps.googleusercontent.com",
          "client_type": 3
        }
      ],
      "api_key": [
        {
          "current_key": "AIzaSyAURZ4sUCb_Hqk45ZBFRwVqC_sSjdDGtJo"
        }
      ],
      "services": {
        "analytics_service": {
          "status": 1
        },
        "appinvite_service": {
          "status": 1,
          "other_platform_oauth_client": []
        },
        "ads_service": {
          "status": 2
        }
      }
    },
    {
      "client_info": {
        "mobilesdk_app_id": "1:241663038141:android:1c7ec7a7bbddaa6d",
        "android_client_info": {
          "package_name": "com.iserveu.saralpay"
        }
      },
      "oauth_client": [
        {
          "client_id": "241663038141-nmi0406gc6vtmfupm4mbbcls28k5p5jr.apps.googleusercontent.com",
          "client_type": 3
        }
      ],
      "api_key": [
        {
          "current_key": "AIzaSyAURZ4sUCb_Hqk45ZBFRwVqC_sSjdDGtJo"
        }
      ],
      "services": {
        "analytics_service": {
          "status": 1
        },
        "appinvite_service": {
          "status": 1,
          "other_platform_oauth_client": []
        },
        "ads_service": {
          "status": 2
        }
      }
    },
    {
      "client_info": {
        "mobilesdk_app_id": "1:241663038141:android:f293f88e703102c7",
        "android_client_info": {
          "package_name": "com.iserveu.saservice"
        }
      },
      "oauth_client": [
        {
          "client_id": "241663038141-nmi0406gc6vtmfupm4mbbcls28k5p5jr.apps.googleusercontent.com",
          "client_type": 3
        }
      ],
      "api_key": [
        {
          "current_key": "AIzaSyAURZ4sUCb_Hqk45ZBFRwVqC_sSjdDGtJo"
        }
      ],
      "services": {
        "analytics_service": {
          "status": 1
        },
        "appinvite_service": {
          "status": 1,
          "other_platform_oauth_client": []
        },
        "ads_service": {
          "status": 2
        }
      }
    },
    {
      "client_info": {
        "mobilesdk_app_id": "1:241663038141:android:2c291ab5382b8661",
        "android_client_info": {
          "package_name": "com.iserveu.smartodisha"
        }
      },
      "oauth_client": [
        {
          "client_id": "241663038141-nmi0406gc6vtmfupm4mbbcls28k5p5jr.apps.googleusercontent.com",
          "client_type": 3
        }
      ],
      "api_key": [
        {
          "current_key": "AIzaSyAURZ4sUCb_Hqk45ZBFRwVqC_sSjdDGtJo"
        }
      ],
      "services": {
        "analytics_service": {
          "status": 1
        },
        "appinvite_service": {
          "status": 1,
          "other_platform_oauth_client": []
        },
        "ads_service": {
          "status": 2
        }
      }
    },
    {
      "client_info": {
        "mobilesdk_app_id": "1:241663038141:android:3b0e6bd1e986fe26",
        "android_client_info": {
          "package_name": "com.iserveu.smartpayservice"
        }
      },
      "oauth_client": [
        {
          "client_id": "241663038141-nmi0406gc6vtmfupm4mbbcls28k5p5jr.apps.googleusercontent.com",
          "client_type": 3
        }
      ],
      "api_key": [
        {
          "current_key": "AIzaSyAURZ4sUCb_Hqk45ZBFRwVqC_sSjdDGtJo"
        }
      ],
      "services": {
        "analytics_service": {
          "status": 1
        },
        "appinvite_service": {
          "status": 1,
          "other_platform_oauth_client": []
        },
        "ads_service": {
          "status": 2
        }
      }
    },
    {
      "client_info": {
        "mobilesdk_app_id": "1:241663038141:android:6c49c03f3de4fa28",
        "android_client_info": {
          "package_name": "com.iserveu.spoint"
        }
      },
      "oauth_client": [
        {
          "client_id": "241663038141-nmi0406gc6vtmfupm4mbbcls28k5p5jr.apps.googleusercontent.com",
          "client_type": 3
        }
      ],
      "api_key": [
        {
          "current_key": "AIzaSyAURZ4sUCb_Hqk45ZBFRwVqC_sSjdDGtJo"
        }
      ],
      "services": {
        "analytics_service": {
          "status": 1
        },
        "appinvite_service": {
          "status": 1,
          "other_platform_oauth_client": []
        },
        "ads_service": {
          "status": 2
        }
      }
    },
    {
      "client_info": {
        "mobilesdk_app_id": "1:241663038141:android:d91f570bb1d052bf",
        "android_client_info": {
          "package_name": "com.iserveu.sps"
        }
      },
      "oauth_client": [
        {
          "client_id": "241663038141-nmi0406gc6vtmfupm4mbbcls28k5p5jr.apps.googleusercontent.com",
          "client_type": 3
        }
      ],
      "api_key": [
        {
          "current_key": "AIzaSyAURZ4sUCb_Hqk45ZBFRwVqC_sSjdDGtJo"
        }
      ],
      "services": {
        "analytics_service": {
          "status": 1
        },
        "appinvite_service": {
          "status": 1,
          "other_platform_oauth_client": []
        },
        "ads_service": {
          "status": 2
        }
      }
    },
    {
      "client_info": {
        "mobilesdk_app_id": "1:241663038141:android:dce4c77ecd2bb658",
        "android_client_info": {
          "package_name": "com.iserveu.ssf"
        }
      },
      "oauth_client": [
        {
          "client_id": "241663038141-nmi0406gc6vtmfupm4mbbcls28k5p5jr.apps.googleusercontent.com",
          "client_type": 3
        }
      ],
      "api_key": [
        {
          "current_key": "AIzaSyAURZ4sUCb_Hqk45ZBFRwVqC_sSjdDGtJo"
        }
      ],
      "services": {
        "analytics_service": {
          "status": 1
        },
        "appinvite_service": {
          "status": 1,
          "other_platform_oauth_client": []
        },
        "ads_service": {
          "status": 2
        }
      }
    },
    {
      "client_info": {
        "mobilesdk_app_id": "1:241663038141:android:473fad7d351ce7a1",
        "android_client_info": {
          "package_name": "com.iserveu.sumptuoustrading"
        }
      },
      "oauth_client": [
        {
          "client_id": "241663038141-nmi0406gc6vtmfupm4mbbcls28k5p5jr.apps.googleusercontent.com",
          "client_type": 3
        }
      ],
      "api_key": [
        {
          "current_key": "AIzaSyAURZ4sUCb_Hqk45ZBFRwVqC_sSjdDGtJo"
        }
      ],
      "services": {
        "analytics_service": {
          "status": 1
        },
        "appinvite_service": {
          "status": 1,
          "other_platform_oauth_client": []
        },
        "ads_service": {
          "status": 2
        }
      }
    },
    {
      "client_info": {
        "mobilesdk_app_id": "1:241663038141:android:37178921cff449f6",
        "android_client_info": {
          "package_name": "com.iserveu.thinksimple"
        }
      },
      "oauth_client": [
        {
          "client_id": "241663038141-nmi0406gc6vtmfupm4mbbcls28k5p5jr.apps.googleusercontent.com",
          "client_type": 3
        }
      ],
      "api_key": [
        {
          "current_key": "AIzaSyAURZ4sUCb_Hqk45ZBFRwVqC_sSjdDGtJo"
        }
      ],
      "services": {
        "analytics_service": {
          "status": 1
        },
        "appinvite_service": {
          "status": 1,
          "other_platform_oauth_client": []
        },
        "ads_service": {
          "status": 2
        }
      }
    },
    {
      "client_info": {
        "mobilesdk_app_id": "1:241663038141:android:eb9ef3a2165563f1",
        "android_client_info": {
          "package_name": "com.iserveu.thumbpay"
        }
      },
      "oauth_client": [
        {
          "client_id": "241663038141-nmi0406gc6vtmfupm4mbbcls28k5p5jr.apps.googleusercontent.com",
          "client_type": 3
        }
      ],
      "api_key": [
        {
          "current_key": "AIzaSyAURZ4sUCb_Hqk45ZBFRwVqC_sSjdDGtJo"
        }
      ],
      "services": {
        "analytics_service": {
          "status": 1
        },
        "appinvite_service": {
          "status": 1,
          "other_platform_oauth_client": []
        },
        "ads_service": {
          "status": 2
        }
      }
    },
    {
      "client_info": {
        "mobilesdk_app_id": "1:241663038141:android:d20090bb52be986b",
        "android_client_info": {
          "package_name": "com.iserveu.toto"
        }
      },
      "oauth_client": [
        {
          "client_id": "241663038141-nmi0406gc6vtmfupm4mbbcls28k5p5jr.apps.googleusercontent.com",
          "client_type": 3
        }
      ],
      "api_key": [
        {
          "current_key": "AIzaSyAURZ4sUCb_Hqk45ZBFRwVqC_sSjdDGtJo"
        }
      ],
      "services": {
        "analytics_service": {
          "status": 1
        },
        "appinvite_service": {
          "status": 1,
          "other_platform_oauth_client": []
        },
        "ads_service": {
          "status": 2
        }
      }
    },
    {
      "client_info": {
        "mobilesdk_app_id": "1:241663038141:android:a95e5cf16ae72c7d",
        "android_client_info": {
          "package_name": "com.iserveu.vinayakinfotech"
        }
      },
      "oauth_client": [
        {
          "client_id": "241663038141-nmi0406gc6vtmfupm4mbbcls28k5p5jr.apps.googleusercontent.com",
          "client_type": 3
        }
      ],
      "api_key": [
        {
          "current_key": "AIzaSyAURZ4sUCb_Hqk45ZBFRwVqC_sSjdDGtJo"
        }
      ],
      "services": {
        "analytics_service": {
          "status": 1
        },
        "appinvite_service": {
          "status": 1,
          "other_platform_oauth_client": []
        },
        "ads_service": {
          "status": 2
        }
      }
    },
    {
      "client_info": {
        "mobilesdk_app_id": "1:241663038141:android:f294723ad50aa5ce",
        "android_client_info": {
          "package_name": "com.samriddhi.aeps"
        }
      },
      "oauth_client": [
        {
          "client_id": "241663038141-nmi0406gc6vtmfupm4mbbcls28k5p5jr.apps.googleusercontent.com",
          "client_type": 3
        }
      ],
      "api_key": [
        {
          "current_key": "AIzaSyAURZ4sUCb_Hqk45ZBFRwVqC_sSjdDGtJo"
        }
      ],
      "services": {
        "analytics_service": {
          "status": 1
        },
        "appinvite_service": {
          "status": 1,
          "other_platform_oauth_client": []
        },
        "ads_service": {
          "status": 2
        }
      }
    }
  ],
  "configuration_version": "1"
}